{
  "uuid": "5e8942a5-2d8b-4640-98f8-7c82f0603b27",
  "shortName": "gw_fire",
  "longName": "Fire",
  "companyName": "trap15",
  "versionLabel": "1.0",
  "sdkVersion": "3",
  "targetPlatforms": ["basalt"],
  "watchapp": {
    "watchface": false
  },
  "appKeys": {
    "dummy": 0
  },
  "resources": {
    "media": [
      { "type": "pbi",
        "name": "PLAYER_SEG0",
        "file": "player_seg0.png"
      },
      { "type": "pbi",
        "name": "PLAYER_SEG1",
        "file": "player_seg1.png"
      },
      { "type": "pbi",
        "name": "PLAYER_SEG2",
        "file": "player_seg2.png"
      },

      { "type": "pbi",
        "name": "CHAR_SEG0",
        "file": "char_seg0.png"
      },
      { "type": "pbi",
        "name": "CHAR_SEG1",
        "file": "char_seg1.png"
      },
      { "type": "pbi",
        "name": "CHAR_SEG2",
        "file": "char_seg2.png"
      },
      { "type": "pbi",
        "name": "CHAR_SEG3",
        "file": "char_seg3.png"
      },
      { "type": "pbi",
        "name": "CHAR_SEG4",
        "file": "char_seg4.png"
      },
      { "type": "pbi",
        "name": "CHAR_SEG5",
        "file": "char_seg5.png"
      },
      { "type": "pbi",
        "name": "CHAR_SEG6",
        "file": "char_seg6.png"
      },
      { "type": "pbi",
        "name": "CHAR_SEG7",
        "file": "char_seg7.png"
      },
      { "type": "pbi",
        "name": "CHAR_SEG8",
        "file": "char_seg8.png"
      },
      { "type": "pbi",
        "name": "CHAR_SEG9",
        "file": "char_seg9.png"
      },

      { "type": "pbi",
        "name": "MISS_SEG0",
        "file": "miss_seg0.png"
      },
      { "type": "pbi",
        "name": "MISS_SEG1",
        "file": "miss_seg1.png"
      },
      { "type": "pbi",
        "name": "MISS_SEG2",
        "file": "miss_seg2.png"
      },

      { "type": "pbi",
        "name": "FAIL_SEG",
        "file": "fail_seg.png"
      },

      { "type": "pbi",
        "name": "FIRE_SEG0",
        "file": "fire_seg0.png"
      },
      { "type": "pbi",
        "name": "FIRE_SEG1",
        "file": "fire_seg1.png"
      },
      { "type": "pbi",
        "name": "FIRE_SEG2",
        "file": "fire_seg2.png"
      },
      { "type": "pbi",
        "name": "FIRE_SEG3",
        "file": "fire_seg3.png"
      },

      { "type": "pbi",
        "name": "AMBUL_SEG",
        "file": "ambul.png"
      },

      { "type": "pbi",
        "name": "BUILD_SEG",
        "file": "building.png"
      }
    ]
  }
}
